\relax 
\catcode`"\active
\select@language{brazil}
\@writefile{toc}{\select@language{brazil}}
\@writefile{lof}{\select@language{brazil}}
\@writefile{lot}{\select@language{brazil}}
\@writefile{toc}{\contentsline {section}{\numberline {1}INTRODU\c C\~AO}{1}}
\@writefile{toc}{\contentsline {section}{\numberline {2}REFER\^ENCIAS RELACIONADAS}{1}}
\newlabel{trabalhos_relacionados}{{2}{1}}
\@writefile{toc}{\contentsline {section}{\numberline {3}SOLU\c C\~AO PROPOSTA}{1}}
\newlabel{solucao_proposta}{{3}{1}}
\@writefile{toc}{\contentsline {subsection}{\numberline {3.1}Fun\c c\~ao principal}{2}}
\@writefile{toc}{\contentsline {subsection}{\numberline {3.2}Estruturas de dados}{2}}
\@writefile{toc}{\contentsline {subsubsection}{\numberline {3.2.1}Express\~ao booleana}{2}}
\@writefile{lot}{\contentsline {table}{\numberline {1}{\ignorespaces Constantes da express\~ao booleana. }}{2}}
\newlabel{tempo_execucao_total}{{1}{2}}
\@writefile{toc}{\contentsline {subsubsection}{\numberline {3.2.2}Matrizes de verdadeiros e falsos}{2}}
\@writefile{toc}{\contentsline {subsection}{\numberline {3.3}Algoritmo}{2}}
\@writefile{toc}{\contentsline {subsubsection}{\numberline {3.3.1}Coloca\c c\~ao de par\^enteses na express\~ao booleana}{3}}
\@writefile{loa}{\contentsline {algocf}{\numberline {1}{\ignorespaces parenthesization(express\~ao booleana, tamanho da express\~ao)}}{3}}
\@writefile{toc}{\contentsline {subsubsection}{\numberline {3.3.2}Contagem dos verdadeiros e falsos das subexpress\~oes}{3}}
\@writefile{loa}{\contentsline {algocf}{\numberline {2}{\ignorespaces computeParenthesizations(i, j, matriz de verdadeiros, matriz de falsos, express\~ao)}}{3}}
\@writefile{toc}{\contentsline {subsubsection}{\numberline {3.3.3}Computar uma express\~ao}{4}}
\@writefile{loa}{\contentsline {algocf}{\numberline {3}{\ignorespaces computeExpression(operador, matriz de verdadeiros, matriz de falsos, i, j, k)}}{4}}
\@writefile{toc}{\contentsline {section}{\numberline {4}IMPLEMENTA\c C\~AO}{5}}
\newlabel{implementacao}{{4}{5}}
\@writefile{toc}{\contentsline {subsection}{\numberline {4.1}C\'odigo}{5}}
\@writefile{toc}{\contentsline {subsubsection}{\numberline {4.1.1}Arquivos .c}{5}}
\@writefile{toc}{\contentsline {subsubsection}{\numberline {4.1.2}Arquivos .h}{5}}
\@writefile{toc}{\contentsline {subsection}{\numberline {4.2}Compila\c c\~ao}{5}}
\@writefile{toc}{\contentsline {subsection}{\numberline {4.3}Execu\c c\~ao}{5}}
\@writefile{toc}{\contentsline {subsubsection}{\numberline {4.3.1}Formato da entrada}{5}}
\@writefile{toc}{\contentsline {subsubsection}{\numberline {4.3.2}Formato da sa\IeC {\'\i }da}{6}}
\@writefile{toc}{\contentsline {section}{\numberline {5}AVALIA\c C\~AO EXPERIMENTAL}{6}}
\newlabel{avaliacao_experimental}{{5}{6}}
\@writefile{toc}{\contentsline {subsection}{\numberline {5.1}An\'alise de desempenho}{6}}
\@writefile{lot}{\contentsline {table}{\numberline {2}{\ignorespaces Tempo de execu\c c\~ao total do programa. }}{6}}
\newlabel{tempo_execucao_total}{{2}{6}}
\@writefile{toc}{\contentsline {subsection}{\numberline {5.2}Mem\'oria alocada}{6}}
\@writefile{lot}{\contentsline {table}{\numberline {3}{\ignorespaces Quantidade de bytes alocados. }}{6}}
\newlabel{memoria_alocada}{{3}{6}}
\@writefile{toc}{\contentsline {section}{\numberline {6}CONCLUS\~AO}{6}}
\newlabel{conclusao}{{6}{6}}
\bibstyle{sbc}
\@writefile{toc}{\contentsline {section}{\numberline {7}REFER\^ENCIAS}{7}}
