10
10
7 4 1 2 8 3 9 10 5 6
9 3 4 10 7 6 1 5 2 8
7 6 9 1 10 3 4 2 8 5
3 9 1 7 6 10 2 4 8 5
4 7 6 3 1 9 8 10 2 5
8 9 6 2 3 10 4 7 5 1
2 10 9 8 5 7 1 6 4 3
2 3 9 6 8 4 1 7 10 5
9 2 7 8 3 1 5 4 10 6
3 1 2 8 5 4 6 10 9 7
10 7 5 4 6 9 3 8 2 1
10 4 6 1 9 3 2 8 7 5
4 8 7 10 1 5 9 3 2 6
4 5 7 1 6 10 9 3 8 2
5 10 8 6 7 9 2 3 4 1
3 10 1 8 7 4 5 2 6 9
2 5 6 10 3 7 4 1 9 8
2 8 10 6 1 4 3 9 7 5
9 4 2 10 7 5 1 3 6 8
9 2 5 10 3 7 8 6 1 4
11
6 5 3 9 7 2 11 1 8 4 10
9 10 8 2 1 11 4 3 7 5 6
3 1 4 6 7 9 2 8 10 5 11
9 6 1 11 8 4 5 10 7 2 3
4 6 2 8 11 1 5 7 9 3 10
7 8 4 9 3 1 6 2 5 10 11
1 8 4 7 3 5 2 6 11 10 9
5 8 3 9 2 10 7 6 11 4 1
1 7 6 11 8 10 9 3 4 2 5
2 8 7 1 3 4 6 11 5 9 10
10 4 8 7 11 6 1 2 9 3 5
9 7 6 3 8 4 1 11 5 10 2
4 5 2 1 9 8 6 11 10 7 3
8 11 2 10 7 6 4 1 9 5 3
7 10 1 5 4 8 6 9 2 11 3
7 10 9 4 11 6 8 2 5 1 3
2 4 5 9 1 10 6 11 3 7 8
9 10 2 3 6 4 5 1 7 8 11
6 8 9 11 1 10 4 2 3 5 7
11 4 6 7 9 1 8 10 5 2 3
6 5 4 7 11 8 2 1 10 3 9
5 8 6 10 1 2 7 3 4 9 11
12
5 4 11 1 8 12 9 7 3 6 10 2
12 11 1 6 7 3 4 5 2 8 10 9
2 4 1 7 6 3 8 9 11 5 12 10
6 1 5 4 10 8 11 9 7 3 2 12
4 10 6 7 1 8 12 9 11 5 3 2
3 7 2 9 4 12 1 6 11 10 5 8
6 7 9 12 8 5 3 4 11 10 1 2
4 7 12 11 8 6 9 3 5 1 2 10
10 4 9 6 11 1 8 5 2 7 3 12
2 3 7 4 10 6 11 8 12 5 1 9
12 9 8 3 10 7 4 2 5 1 6 11
5 12 10 4 6 9 8 1 2 3 7 11
5 9 6 3 11 12 4 7 8 2 1 10
8 3 5 6 1 12 4 10 9 2 11 7
7 8 10 1 11 12 6 2 4 9 5 3
4 9 5 3 7 2 8 10 1 11 12 6
10 11 7 9 2 12 4 1 3 5 6 8
2 4 10 1 7 11 8 12 3 5 6 9
3 10 4 2 9 7 8 5 6 1 11 12
11 9 1 5 8 7 2 10 6 4 12 3
2 9 4 10 11 8 12 3 1 5 6 7
10 5 6 7 3 2 9 1 12 4 8 11
4 6 12 7 1 2 5 11 10 3 9 8
4 9 8 11 2 10 3 6 5 1 12 7
13
8 12 6 7 2 3 5 1 4 13 10 11 9
13 11 5 12 2 9 8 3 6 7 4 1 10
10 9 1 7 5 11 8 13 6 4 2 3 12
10 3 13 4 7 12 9 8 6 5 1 11 2
13 8 11 9 1 7 5 6 4 12 3 2 10
3 2 8 5 9 13 12 10 6 7 11 1 4
8 6 13 12 9 10 4 7 5 11 2 1 3
9 7 1 12 8 11 13 2 4 3 5 6 10
8 13 10 2 5 6 11 4 9 7 3 12 1
9 3 1 4 7 11 8 12 2 13 10 6 5
12 11 6 2 7 5 3 10 9 1 8 13 4
7 6 5 13 9 3 12 4 11 10 2 1 8
2 7 11 13 12 8 9 5 1 6 4 3 10
3 13 8 9 6 7 2 12 5 4 11 1 10
2 1 3 9 12 7 8 4 13 6 5 11 10
1 9 12 7 10 6 8 2 4 3 11 13 5
8 9 13 12 4 2 3 10 1 11 7 5 6
10 4 2 1 8 11 13 3 6 7 12 9 5
7 13 4 11 2 5 9 6 3 1 12 10 8
5 9 12 13 3 7 11 8 2 1 10 6 4
5 11 1 3 6 2 9 8 4 10 12 7 13
4 3 12 10 8 5 1 6 13 7 2 9 11
8 3 12 7 6 2 4 1 5 9 10 13 11
9 12 4 11 1 5 8 13 10 7 3 6 2
1 4 12 2 6 3 8 11 5 7 10 13 9
11 1 5 4 13 3 9 10 2 6 12 8 7
14
9 6 10 7 12 13 11 5 1 8 14 2 3 4
4 6 2 14 13 7 5 11 3 10 9 8 12 1
6 2 8 10 13 11 3 12 14 7 9 1 4 5
4 1 8 10 5 2 7 6 12 14 9 11 3 13
9 6 13 2 1 14 3 11 10 12 7 8 5 4
13 4 9 5 6 10 7 3 12 1 2 8 14 11
8 4 9 10 2 5 12 1 6 14 11 13 7 3
13 7 8 1 5 12 3 2 11 6 14 9 10 4
6 13 8 12 3 9 11 2 14 1 10 7 5 4
10 9 12 4 14 5 3 1 2 7 6 8 13 11
9 7 13 4 3 2 1 5 10 12 14 6 8 11
6 12 7 2 13 4 8 1 11 3 9 10 14 5
4 14 9 3 11 5 7 10 2 1 8 13 12 6
1 3 2 13 11 10 7 4 8 5 12 6 14 9
12 8 5 13 10 3 2 1 6 7 4 9 11 14
12 14 3 5 4 7 9 13 1 2 11 6 8 10
8 14 7 10 3 9 13 11 4 2 12 5 6 1
6 14 3 11 7 2 5 8 4 9 10 12 1 13
10 6 2 4 9 1 11 7 8 14 13 12 5 3
2 13 3 10 8 6 11 4 1 7 14 12 5 9
1 13 7 8 6 10 2 3 14 9 4 11 5 12
3 5 1 7 6 14 4 2 13 12 9 8 10 11
10 4 2 6 12 11 13 1 7 8 14 5 3 9
3 10 9 12 5 13 1 11 4 14 7 8 6 2
1 11 14 3 9 2 6 7 4 10 5 13 12 8
8 7 1 11 13 5 10 4 3 9 14 6 12 2
12 14 7 1 4 5 6 13 11 2 3 8 10 9
9 13 2 10 6 1 8 14 3 7 11 4 12 5
15
15 14 13 4 5 12 2 1 9 11 10 3 7 8 6
10 7 13 4 11 15 8 1 9 6 2 14 3 12 5
1 2 15 11 13 4 6 14 3 7 10 9 12 5 8
13 1 4 11 15 10 6 5 12 14 8 9 3 7 2
2 8 5 9 4 7 6 10 15 12 14 11 1 13 3
4 13 9 7 15 14 6 12 2 11 10 5 3 1 8
15 3 11 8 7 2 13 10 12 1 4 5 6 14 9
14 8 11 3 13 9 4 1 7 10 2 6 5 15 12
5 10 4 8 3 7 12 14 6 11 1 9 13 2 15
15 2 7 6 1 3 14 8 13 5 9 11 10 4 12
5 7 4 10 1 12 2 9 3 8 14 6 11 15 13
6 11 3 12 4 10 1 13 5 9 15 8 2 7 14
10 4 11 3 5 12 6 2 14 15 13 1 7 9 8
1 13 11 3 5 2 10 4 8 7 14 9 12 15 6
7 14 5 10 1 9 3 6 2 15 12 11 8 13 4
7 1 6 13 14 2 11 10 15 5 8 4 9 12 3
8 6 7 4 1 10 2 5 15 3 9 14 11 12 13
1 9 6 7 10 3 15 4 8 11 2 12 5 13 14
7 11 5 1 13 4 3 6 9 12 14 2 8 15 10
1 3 14 4 9 7 12 15 6 10 5 13 8 11 2
4 6 14 12 15 5 3 2 8 7 9 11 1 10 13
5 13 9 10 8 7 4 11 6 1 14 2 15 3 12
14 5 8 7 11 15 10 9 2 6 1 12 4 3 13
13 12 6 7 1 10 11 15 3 5 2 9 4 8 14
5 3 15 10 11 14 2 4 12 8 6 1 7 13 9
10 4 7 1 9 14 3 2 13 6 12 5 11 15 8
14 10 4 8 1 15 3 12 11 7 13 5 9 6 2
12 10 6 4 13 8 5 2 1 3 9 7 15 11 14
2 6 13 12 14 1 4 9 8 10 7 15 11 3 5
14 6 15 1 9 2 11 7 3 8 5 10 12 13 4
16
10 2 3 15 16 4 1 11 6 8 14 7 12 13 9 5
2 5 11 4 15 12 13 16 14 3 7 10 9 8 1 6
2 9 16 4 14 3 5 11 8 6 15 1 12 10 7 13
4 11 14 3 2 6 10 5 12 13 8 1 15 7 16 9
4 1 6 7 5 12 8 10 11 14 13 3 15 16 9 2
2 13 6 9 5 1 8 12 4 15 3 14 16 10 11 7
13 3 2 8 16 6 10 9 5 12 15 1 14 11 7 4
1 3 6 11 15 9 4 13 2 10 14 5 16 8 12 7
15 13 10 16 1 14 2 7 5 3 12 9 8 6 11 4
12 16 7 8 5 13 2 6 11 3 4 9 10 14 1 15
16 10 5 3 8 6 2 4 12 15 7 9 13 1 11 14
2 15 5 12 6 1 9 4 3 13 14 16 8 7 11 10
7 3 8 15 10 13 5 6 9 14 16 4 12 2 1 11
5 8 9 16 2 1 13 14 11 15 6 12 7 4 3 10
16 1 10 8 13 15 11 6 5 3 2 12 7 9 4 14
12 9 2 10 16 8 11 5 6 7 15 4 3 14 1 13
14 3 10 15 7 4 9 12 8 6 5 13 2 11 16 1
16 11 8 2 6 12 1 5 3 9 14 13 10 7 15 4
2 14 8 11 13 5 12 3 4 16 9 15 6 10 7 1
12 11 1 14 10 7 4 8 9 3 16 2 5 13 6 15
13 1 8 12 3 11 16 15 4 9 10 5 6 14 2 7
12 15 13 4 3 1 7 5 8 11 14 10 9 6 16 2
3 4 13 2 5 16 15 7 9 1 8 11 10 14 6 12
9 1 16 4 3 13 15 2 6 11 5 14 7 12 8 10
13 6 14 11 4 10 12 3 15 5 2 7 8 9 16 1
10 1 5 7 8 15 12 4 14 11 9 16 13 2 3 6
4 10 5 2 14 3 9 11 6 15 7 16 8 13 1 12
9 16 14 4 15 11 1 8 5 10 2 6 13 12 7 3
6 11 15 13 10 7 1 5 8 14 4 12 2 16 9 3
13 9 15 10 5 4 3 2 16 1 14 12 8 11 7 6
11 16 15 7 5 4 12 9 13 6 1 14 3 2 8 10
10 6 8 15 1 4 14 12 7 16 2 5 9 13 3 11
17
1 7 13 15 12 5 14 11 9 3 17 6 8 2 4 10 16
7 4 16 2 13 8 1 10 11 9 6 12 5 17 3 14 15
6 12 15 2 17 7 13 10 1 11 4 14 3 9 5 16 8
7 2 11 15 13 5 14 8 12 10 17 4 6 1 9 16 3
11 3 10 1 15 14 9 2 7 13 12 17 16 4 8 5 6
12 15 16 9 4 10 7 14 5 6 17 11 1 8 3 2 13
2 7 10 12 9 17 14 8 15 3 6 4 16 5 11 1 13
13 1 5 12 11 15 17 3 7 9 2 10 4 6 14 8 16
13 9 16 1 5 14 11 8 4 2 15 10 3 12 7 6 17
5 12 7 17 1 2 15 14 4 10 16 8 3 6 11 9 13
11 2 7 8 14 4 1 13 15 10 6 3 17 9 12 16 5
3 6 13 12 10 4 8 7 17 14 11 1 15 16 9 5 2
17 14 6 10 13 4 8 1 11 7 5 9 15 3 16 12 2
4 7 12 5 14 17 11 8 2 9 6 10 15 1 16 13 3
8 13 2 10 3 5 15 16 14 7 6 4 17 11 12 1 9
14 6 13 7 16 2 11 15 4 3 9 17 1 5 8 10 12
13 8 3 16 11 2 7 17 4 9 15 10 14 6 12 1 5
15 17 4 13 8 3 14 2 12 5 9 1 7 10 11 16 6
15 6 17 14 12 10 13 16 1 4 7 9 8 11 3 2 5
13 3 12 15 14 1 8 11 9 16 17 6 7 10 2 4 5
5 1 11 17 6 7 16 9 12 13 4 15 14 8 10 2 3
14 7 1 8 12 6 4 9 11 2 17 10 15 13 5 3 16
13 5 4 6 3 16 12 8 14 15 7 17 10 9 2 11 1
8 14 9 5 12 16 10 2 7 6 1 3 17 11 15 4 13
6 13 16 17 8 11 3 15 1 7 14 2 9 12 4 5 10
3 16 10 14 7 17 13 9 8 12 1 2 6 5 15 11 4
14 13 7 15 8 9 11 16 5 3 17 4 12 6 10 1 2
3 8 7 11 12 10 14 17 5 6 15 9 13 16 1 4 2
13 12 14 17 4 7 10 6 5 11 8 16 2 3 1 9 15
1 3 13 5 4 10 17 16 14 2 9 15 7 11 8 12 6
12 6 8 10 3 9 13 15 14 1 17 4 5 16 2 7 11
10 15 1 11 14 4 3 2 13 6 7 8 9 5 12 17 16
14 8 16 7 9 15 2 6 4 17 1 10 11 12 5 3 13
5 10 12 11 17 6 8 7 13 1 3 14 15 16 4 9 2
18
6 1 3 15 8 17 11 12 13 2 4 18 14 16 7 9 5 10
18 16 14 5 9 1 2 4 10 17 7 8 13 3 11 12 6 15
11 3 17 15 5 9 4 7 18 13 14 8 2 16 10 12 6 1
3 12 11 6 7 5 4 8 16 9 10 1 14 15 2 13 17 18
3 18 8 11 9 7 17 14 4 12 10 2 1 5 15 16 13 6
12 14 16 11 13 2 5 8 10 4 15 7 18 1 6 17 3 9
16 3 2 6 15 1 12 11 5 10 17 4 9 14 18 7 13 8
8 15 14 5 3 6 2 17 4 1 11 18 9 16 13 12 7 10
2 14 1 15 10 6 4 9 13 11 17 3 8 5 16 18 12 7
7 17 14 10 2 13 3 15 11 4 12 18 8 1 16 6 5 9
11 12 5 3 17 10 13 4 8 14 1 7 16 15 9 2 18 6
17 5 18 6 1 9 3 7 11 14 4 8 2 10 15 13 12 16
8 9 14 5 2 18 12 10 1 17 7 13 4 11 15 16 6 3
3 7 15 5 14 17 1 10 6 16 13 11 18 9 8 2 12 4
15 8 4 13 12 3 9 5 18 1 6 17 11 10 2 16 14 7
9 1 4 16 3 13 2 8 14 5 6 12 7 17 18 11 15 10
13 15 8 11 12 6 2 10 18 17 7 3 14 1 4 9 5 16
14 2 13 12 4 17 3 10 8 7 1 15 18 6 9 5 11 16
5 1 10 18 6 17 3 7 13 15 9 8 12 2 11 14 16 4
5 15 9 16 18 10 6 8 3 11 1 13 4 2 14 12 17 7
6 15 5 14 17 10 13 2 4 3 7 1 9 12 8 18 16 11
8 15 18 2 12 1 16 17 14 6 9 7 11 10 5 13 3 4
14 13 6 5 10 8 17 11 2 9 1 3 18 16 15 7 12 4
18 15 8 7 3 1 9 11 2 14 16 10 12 13 6 4 17 5
18 10 5 6 3 15 9 12 16 17 14 11 4 2 1 7 13 8
3 15 18 10 4 12 8 16 7 11 14 17 5 2 13 1 9 6
10 14 2 5 7 15 6 17 13 8 18 1 3 16 9 12 11 4
3 15 5 14 1 16 4 10 17 18 2 9 11 13 6 8 12 7
12 14 17 8 7 1 15 11 3 2 13 18 10 5 9 6 4 16
7 10 8 16 5 18 13 11 17 3 9 15 1 6 2 12 4 14
16 18 14 1 12 2 11 6 7 10 13 3 5 15 9 17 4 8
7 12 14 10 11 13 17 18 16 15 1 3 2 5 6 8 4 9
15 18 17 3 2 11 5 16 6 4 9 12 7 8 13 10 14 1
14 16 10 1 15 18 17 4 5 8 12 13 3 9 11 7 6 2
12 14 13 16 9 3 7 6 8 5 1 2 10 4 11 17 15 18
15 7 13 11 4 14 18 8 2 12 16 3 9 1 17 6 5 10
19
7 10 5 11 1 8 15 2 9 14 3 18 12 16 6 19 17 4 13
5 17 13 18 9 7 4 12 3 11 1 16 19 14 2 6 8 15 10
7 5 10 12 8 2 18 3 9 1 16 11 15 13 19 17 4 6 14
5 2 14 11 19 1 15 9 4 16 8 12 17 10 18 6 13 3 7
3 9 5 12 6 13 10 7 14 11 17 19 2 8 15 18 4 16 1
12 4 5 17 7 13 9 6 16 10 1 14 18 2 15 19 8 11 3
8 11 7 16 10 3 13 1 14 12 18 5 17 9 19 6 4 15 2
12 19 15 4 3 16 11 13 8 10 9 2 5 1 6 17 14 18 7
2 1 16 12 19 7 15 13 10 11 8 3 18 14 4 5 17 6 9
1 3 12 15 8 6 9 19 17 4 10 13 18 14 7 2 16 5 11
19 10 2 16 14 18 1 6 17 12 8 11 7 5 9 3 15 13 4
13 5 6 9 3 10 19 1 7 12 8 14 16 18 15 11 4 2 17
10 8 9 4 18 7 2 1 5 6 11 13 17 12 19 15 16 3 14
12 10 3 17 9 7 5 15 11 16 6 1 8 19 2 18 4 13 14
16 12 14 3 19 18 5 8 9 10 11 1 15 7 17 13 6 4 2
5 13 9 14 6 19 8 11 10 12 15 7 17 1 2 18 4 16 3
8 6 3 17 12 10 15 19 5 4 11 1 16 18 14 13 7 9 2
12 6 5 9 1 17 15 4 8 13 19 14 18 7 11 2 3 16 10
4 12 19 8 5 6 13 17 1 9 2 16 18 7 10 3 15 11 14
11 9 8 2 10 13 14 17 5 15 12 1 16 3 7 4 6 18 19
14 9 1 13 3 7 12 8 16 11 6 4 10 18 15 17 19 5 2
8 17 1 15 11 13 9 6 18 5 14 7 12 16 3 2 10 19 4
17 14 10 18 1 12 8 9 4 3 2 11 15 19 13 16 6 5 7
11 4 8 1 10 3 16 14 17 12 2 15 19 7 5 6 13 18 9
4 17 14 12 19 1 6 8 11 18 7 5 9 3 13 10 16 2 15
4 14 8 2 3 10 5 1 13 18 6 16 12 19 7 11 9 15 17
17 5 1 2 10 16 9 7 13 6 3 18 11 8 19 12 4 15 14
5 11 9 15 8 3 18 10 19 2 12 13 4 1 16 7 6 17 14
2 11 8 14 13 7 15 6 17 1 9 12 16 18 19 10 4 3 5
3 15 17 16 14 19 1 2 18 13 6 11 7 12 5 8 10 4 9
19 12 16 17 4 10 8 2 1 13 7 3 18 14 9 15 5 6 11
1 6 8 12 7 17 19 18 16 2 11 15 10 14 5 9 13 3 4
16 7 11 18 13 5 19 15 14 17 3 2 10 6 1 12 8 4 9
13 11 19 10 5 17 16 6 12 2 9 14 18 7 3 8 15 1 4
19 10 15 17 1 3 16 4 14 12 5 18 13 9 2 11 7 6 8
13 4 12 3 8 5 15 10 6 7 11 9 14 17 1 16 19 2 18
9 15 6 5 16 19 1 10 11 8 7 4 18 14 2 17 13 3 12
2 5 16 1 19 7 8 17 6 18 3 10 4 11 15 13 9 12 14