5
4
1 3 4 2
1 3 2 4
2 3 1 4
3 1 2 4
4 2 1 3
4 2 1 3
3 1 2 4
1 3 2 4
5
3 4 5 2 1
2 4 1 5 3
3 5 2 4 1
4 5 3 2 1
2 5 3 4 1
4 5 3 2 1
5 3 2 1 4
3 2 5 1 4
3 4 1 5 2
2 1 5 3 4
6
4 6 5 1 3 2
1 3 2 6 5 4
1 4 5 6 2 3
2 3 4 1 6 5
3 4 2 1 5 6
4 3 1 6 5 2
4 1 6 2 3 5
1 4 2 5 3 6
2 3 5 6 4 1
5 4 6 2 1 3
6 4 5 3 1 2
6 3 1 2 5 4
7
3 2 6 7 5 1 4
1 5 6 3 4 2 7
4 1 5 7 3 6 2
2 3 4 5 1 6 7
4 6 1 2 3 5 7
7 4 1 6 3 5 2
1 6 2 5 4 7 3
5 6 7 2 3 4 1
5 6 2 3 7 1 4
1 2 4 6 7 5 3
7 1 6 5 2 4 3
6 7 4 5 2 1 3
3 1 4 5 2 6 7
3 7 2 5 1 6 4
8
2 5 3 8 4 7 6 1
6 7 2 3 8 1 5 4
1 3 7 6 5 8 2 4
4 6 2 8 1 7 5 3
3 6 1 5 8 2 7 4
2 3 1 6 7 5 4 8
1 3 4 7 8 5 2 6
3 5 4 2 8 6 1 7
6 8 3 5 1 2 4 7
5 6 3 1 8 7 4 2
6 7 5 4 8 2 1 3
2 4 8 3 6 5 7 1
8 6 7 3 4 2 1 5
2 1 5 4 3 6 7 8
8 5 4 2 1 6 7 3
1 4 3 2 6 7 8 5