#Heuristica1:
11
1 : 2 3 4 5 6 7 8 9 10 11 13 17 20 22 23 24 43 50
13 : 1 11 12 14 15 17 27 34 41 43 45 48 50
17 : 1 11 13 14 15 16 18 19 20 22 23 24 27 34 38 41 43 45 48 50
22 : 1 17 20 21 23 24 27 28 33 34 37 38 39 40 41 42 43 44 45 48 50
25 : 24 26 27 28 31 32 34 36 37 38 39
30 : 23 24 28 29 31 32 34
32 : 24 25 27 28 30 31 33 34
36 : 24 25 33 34 35 37
38 : 14 17 20 21 22 23 24 25 34 37 39 40 41
43 : 1 3 11 13 14 17 18 20 21 22 23 24 41 42 44 45 48 50
48 : 3 11 13 14 17 18 19 20 21 22 23 24 43 45 46 47 49 50
#Heuristica2:
8
1 : 2 3 4 5 6 7 8 9 10 11 13 17 20 22 23 24 43 50
13 : 1 11 12 14 15 17 27 34 41 43 45 48 50
15 : 13 14 16 17 50
21 : 20 22 33 37 38 40 41 42 43 44 45 46 48 50
24 : 1 17 20 22 23 25 27 28 30 31 32 33 34 35 36 37 38 39 40 41 43 45 48 50
25 : 24 26 27 28 31 32 34 36 37 38 39
28 : 22 23 24 25 27 29 30 31 32 34
48 : 3 11 13 14 17 18 19 20 21 22 23 24 43 45 46 47 49 50