10
3
Zilda Soares#33739547
Tadeu Silva#78651294
Nilton Moraes#35624847
Marta Maria#85642375
Joao Cunha#74856723
Diego Sousa#89981441
Cecilia Moura#99771265
Beatriz Salles#94742045
Antonio Luis#35615423
Amanda Pires#87345530

