1000
10
Habal Alahaa#84274625
Zqfax Xxaijq#55575188
Ojiqq Qqqotj#14048201
Bmrlo Polarm#71364003
Nzukd Cdkivz#94643568
Xdiff Dffpsd#27393471
Rtiwk Vkwaqt#31099949
Tyahb Nbhxyy#59774380
Kcugy Qygcpc#75717602
Bqzni Wintbq#60144428
Uodxk Ykxrpo#30632067
Crsha Tahhbr#51235588
Qfkkr Drkrof#87924935
Lgnan Lnagpg#40506302
Dffhs Ishjmf#20017349
Emdln Rnlszm#77981558
Zhmjh Ihjkbh#94649557
Htssi Iisbjt#16716195
Dlmgu Eugyul#44949610
Hlato Cottql#92004726
Ocjvz Mzvubc#90694678
Utnxw Xwxiht#64697053
Kciyp Lpyjgc#12549571
Jvfmh Vhmxsv#19315420
Ejdai Yiaofj#47944735
Cukfe Keftxu#27662609
Bukfq Bqfwpu#52601005
Fkrvd Tdvark#27079000
Pzxnm Smndnz#60113636
Rwctx Sxtgbw#34582541
Mvppo Lopstv#61593581
Nqvoz Zzoqaq#72605229
Rpxri Pirpep#69807870
Hifui Oiusui#61876102
Zarwx Txwesa#53215251
Tiqis Lsiubi#47046522
Rfzyq Qqyjlf#62522137
Kzjbn Jnbrqz#28332811
Tiftt Fttdri#72259192
Ebimt Ntmesb#45418871
Wevih Yhilme#77637251
Cihdp Jpdxai#58425799
Bfgkq Iqkstf#77856364
Foomj Sjmiqo#97018233
Pocyj Bjyfro#34867193
Xfnhz Azhoff#21326475
Udldj Ijdetd#25482164
Soacv Pvcqzo#60751733
Bgmfc Qcfmmg#98807275
Fnnse Nessfn#55247699
Fhibj Sjbdth#51603644
Rnfqm Kmqdon#68499843
Mnduj Njuzqn#51252794
Hvnmq Wqmzsv#42571480
Mejcz Wzchxe#94952182
Untwi Piwpen#44686455
Deyog Wgooze#61339792
Lguef Dfecyg#69945179
Xrskk Ykkecr#80273094
Cshyo Ioycls#80367620
Mmgng Xgnqcm#37215615
Rlfxw Dwxzfl#76319231
Lbuxp Cpxcjb#77802915
Wgrgz Rzgqug#77874766
Pebcw Zwckve#40936258
Psvcp Zpcvrs#94913488
Xkobv Dvbdvk#76856485
Yccsb Hbsxbc#30494094
Bywwa Cawgxy#73245045
Ctxhc Ychort#24222795
Dvbbv Yvbzsv#24932466
Vxkza Xazxgx#44352619
Szvec Jcevxz#65891559
Dlust Qtscul#96129734
Mtvtf Sftcwt#96797517
Mnyus Tsuppn#75027926
Wlkme Zemcul#85889954
Fedeq Bqejle#49833849
Yqssz Dzsazq#65285050
Apkdm Lmdojp#21134647
Qkjqg Ngqngk#95726926
Msabk Mkbtxs#29804144
Umqqr Brqkdm#96331407
Cccam Rmaqoc#45762400
Tjbwd Kdwtpj#61661736
Lyaol Blouzy#20011769
Cvlen Fneysv#48094929
Ijbvy Iyverj#48655963
Qdoby Nybond#32224223
Varlv Uvljka#17509043
Rwpbq Uqbohw#94746567
Dczus Zsupkc#77412396
Sshzq Aqzzls#30335673
Lxget Pteulx#46676571
Mgtkg Cgkkrg#14191192
Tihln Bnllei#66826816
Gttez Qzeact#75484783
Yckbt Ntbdgc#44758940
Czosj Gjstlz#76097895
Xbtih Xhiedb#59539448
Rgpxy Nyxhzg#19291835
Zllom Zmokfl#97499863
Hbfph Uhpngb#94217064
Itfng Vgntqt#88461810
Vpdsz Czsiep#35434263
Xbyhk Fkhscb#89537596
Rozrn Fnrmbo#17734266
Wndqk Bkqtbn#98476090
Lycgd Kdgnxy#25567835
Zkvse Besaqk#58265403
Lulkr Srkiku#98631628
Vqxku Kukrmq#66934974
Qvijp Ipjtfv#50209451
Zkwdb Rbdmck#24876995
Kfsml Blmlif#55785351
Dympt Ktptby#68619911
Edjwg Lgwisd#34712342
Zlaoq Bqohzl#42279048
Wnszp Jpzkin#15507341
Xndvu Luvnsn#95991765
Jpgqn Wnqhdp#12796244
Nvktk Pktsbv#23326962
Fnzzk Ikzaon#21293724
Gfhrw Iwralf#17536871
Rrvcb Jbcfgr#73431652
Ywwir Srixow#87069095
Qawep Bpehoa#96713248
Pjtqu Duqsjj#78005750
Awlry Zyrdqw#51683911
Eagle Selgfa#87671869
Hixrw Wwrmui#96837340
Plcwa Pawedl#74353355
Krdec Ececlr#56605017
Dkanb Dbndek#18971663
Umbmz Bzmqkm#59479269
Msbsz Rzshxs#78717610
Ldwlz Azljrd#63804372
Qdajz Mzjoxd#73267642
Hgtvk Bkveag#66879339
Eprxv Mvxirp#48198857
Zazup Ppuyla#68122581
Lfqiw Ywirnf#88014189
Jfagi Higslf#75535374
Sntag Agaqen#57333415
Dbrac Lcamtb#35408041
Wynxj Tjxugy#58477932
Nfbcy Wycrzf#95492373
Dqvcp Opcljq#23975314
Xrxtc Actidr#89923642
Zwfcz Izcvhw#45932200
Rvrvb Abvwdv#49797723
Mftkn Wnkntf#62204393
Kvppq Kqpdhv#44991370
Jjvnf Wfnquj#86824169
Rqdcv Bvcyhq#44429019
Bnfai Aiamvn#86462775
Lmnpo Uopoqm#68782750
Mdddo Godhcd#62147642
Hxksm Jmscix#97611231
Imuxw Fwxtam#22994155
Mrbzl Glzjtr#77239513
Xsoae Jeands#67654102
Mrtaw Bwaqnr#16958551
Sjsmm Emmqlj#83616731
Pqjks Eskzaq#28897616
Idycp Kpcpxd#50502264
Qwvhw Vwhwrw#26324466
Xpxlc Kcllrp#47334571
Ozdbz Szbotz#36799599
Mdzcv Kvcrcd#90209339
Uawoa Laowla#65996613
Ikuxx Exxdck#18264783
Rshxk Skxsxs#48913326
Sgtih Jhiugg#30991146
Bfkdp Spdeef#20711050
Ratda Ladkba#36472201
Ncyab Cbaroc#48102409
Cuzfq Oqfsfu#28888012
Nrlcf Zfctyr#69555634
Kscpp Uppkzs#47384070
Ghoyq Eqyhah#18744623
Ahygk Tkgpzh#31682796
Diots Zstzsi#89793471
Skuvd Cdvcqk#43539074
Vkwda Hadwak#80981351
Kjego Hogwdj#20085045
Emhqi Uiqhdm#35582763
Mnkth Lhtqbn#10702551
Hijuu Vuudai#62771310
Cgpva Uavtsg#63551022
Wyzev Jvejmy#33855372
Exnhs Mshupx#24491910
Ftjvb Ebvoot#25134337
Oiohj Bjhpci#24275869
Vzsnx Cxnigz#74538105
Hijoq Xqoydi#45457861
Gclrq Mqrsic#89779817
Bddkt Ltkjbd#52254304
Mjylp Upldzj#98801763
Rdpdg Kgdebd#71601404
Sqrub Gbupeq#75474848
Ajyaf Hfaadj#69887571
Uvidf Dfdeyv#96097739
Vutbo Eobdnu#51678363
Gygfx Gxfizy#96342599
Ugpck Kkcmjg#17273954
Fgojv Mvjkkg#97677078
Pjwok Ckogoj#49194575
Vikft Ftfgyi#61516156
Cbcqg Xgqlpb#44851611
Ccmlq Dqldkc#77369309
Wsjwh Bhwlcs#32413507
Wwykm Zmkubw#82595866
Rbhbj Tjbdeb#77001723
Rvmbq Bqbglv#29581256
Oxoic Icinpx#54565244
Fecrr Qrrwhe#55739608
Xixag Ngalwi#87925120
Oeexh Ahxave#69778004
Rojkg Ygkoto#18524111
Fdmtr Grthxd#58151833
Odpte Betkpd#11794138
Csbea Aaetds#24553274
Wryhw Awhjpr#10725146
Rhwbp Apbcsh#29267443
Xqjox Hxotjq#76129782
Xlace Zeczyl#50167315
Fvqha Wahhqv#65785898
Hosit Utiwjo#41178713
Ytzdj Mjdyzt#18273493
Ujzwi Siwccj#43495527
Vzypd Bdpdcz#63128484
Uixsy Rystli#81497960
Dqwgr Urgccq#19767236
Uoyvs Ssvvxo#27894853
Ypzio Yoibhp#15003759
Lstrf Rfrnxs#71173453
Oxrhi Wihoxx#11293335
Rszix Xxiqbs#65601860
Wxssi Risbzx#44539508
Gedpe Vepmhe#80872553
Kmlyo Yoykmm#65844735
Ppaje Rejwhp#52578703
Gnjfe Eefann#77985003
Zklve Sevnmk#21482623
Seoai Wiasxe#16788684
Snwcx Yxchpn#13918548
Jgoip Xpiyvg#32976728
Swksm Vmsdmw#96871946
Antyw Bwyctn#14307063
Xupzj Mjzhsu#80698673
Ixrnr Zrnxux#32119161
Gtdhi Yihkct#52007847
Uzhzh Shzcvz#47653402
Wpeeh Nheddp#73288916
Lvwzd Cdzfxv#29685101
Ukrxm Jmxnxk#23957680
Wdeiy Uyisqd#14634215
Rqrzx Mxztnq#10734924
Bxhcq Jqcjxx#31325784
Ydwkl Rlkucd#83935671
Tptpz Gzpbgp#38078480
Vacqx Oxqora#30469826
Dryfh Ghffhr#35084440
Fgoqu Euqmhg#40663856
Tzsqy Wyqpcz#24105586
Ktrjy Tyjkkt#75323755
Qylxa Saxcfy#13512803
Wzlmi Zimepz#25842437
Vspfi Uifcws#89903114
Zespt Ltpmye#35146383
Qdusl Xlsdvd#80993088
Rwbox Mxoafw#85567130
Wiegg Dggbri#36097183
Ecjhq Aqhijc#48518325
Ztqfu Lufyct#50018398
Fezyh Hhybwe#47518038
Pdpdp Ypdemd#72445735
Teuiw Ywiche#14984490
Hyeyr Orygxy#77799903
Owchl Glhzbw#30321469
Wwxgy Hygczw#25475410
Vawxx Lxxria#39336280
Jsmse Heshgs#88592191
Sxgkr Hrkvwx#54077556
Hdkiq Xqikxd#36085734
Tuqcb Rbcgju#37186138
Yarnf Gfnska#80452093
Azmvi Iivqnz#71173035
Trdhc Ochdmr#73811598
Sjzfh Rhfzsj#95739810
Brxap Jpaonr#46437877
Fjfqk Okqcrj#40488935
Mjfqn Gnqloj#73096086
Cyqym Omydhy#35795362
Crsbs Qsbucr#27946591
Gyhcs Hsczzy#80421387
Ivtie Deiqdv#56968755
Wfqmj Mjmbaf#19279409
Rogqa Eaqkwo#69875872
Rmabz Dzbwxm#59695852
Qmhhe Iehxvm#41806519
Kgqxg Sgxemg#82641190
Ljgdo Todibj#64018991
Wnjus Psuozn#59145979
Shvpv Bvpadh#23237142
Loofv Avffto#99528778
Snrbg Jgbhan#90508560
Dhjzj Rjzigh#63576370
Qjfxk Gkxccj#99391937
Tsxss Jsscms#43983380
Cbygs Tsgshb#94976956
Syhkz Tzklby#69296859
Pjxbl Flbslj#64937169
Bzeyy Dyyblz#78432003
Rfxel Bleicf#87098165
Rtejt Etjuyt#88846948
Nwifr Brfhew#43041872
Sdkpr Grpthd#59409092
Vyufb Ibfroy#16187951
Hbcsc Vcsxbb#75126902
Vidfy Ryflxi#88963138
Xjydc Ocdbqj#59966623
Tlczq Tqzpel#55707572
Dcokz Zzkzxc#69728402
Quvzi Pizpfu#89622803
Lnegp Npgjln#43943019
Vhogy Iyghmh#69957496
Ynykw Zwkdjn#28194384
Ypsng Egnsdp#82062586
Spazh Qhzeqp#79658537
Tnpqc Tcqton#60467698
Xtfej Gjeebt#69605165
Ifyxy Syxgif#16322132
Skjmy Rymdok#54681955
Gmtcy Iyczmm#17145939
Ofmaf Ufaouf#58169502
Dctzc Tcztac#27847405
Unuif Efibjn#85891343
Bnizw Vwzomn#16919886
Kmnlc Lclrsm#20481980
Boecs Sschyo#45291580
Gpitd Cdtykp#39083985
Qfxwt Btwblf#94201915
Noens Tsnijo#61112792
Uubti Eitmwu#53201323
Tnggs Tsgucn#37821104
Umlwg Ngwqsm#66609338
Kcahp Vphjtc#47633670
Vrgps Tspnkr#22311037
Aolsr Qrsnyo#25945709
Xknph Khpvsk#90152839
Lwjeo Foednw#43997025
Dauxd Hdxsea#32622034
Xhghu Fuhjvh#94788995
Pcaed Bdegvc#23993372
Qmmam Mmawfm#81505944
Prlwx Wxwhgr#47218431
Yvsqt Otqwrv#16441731
Ldjey Syezvd#11786078
Elvdj Zjdqwl#83207014
Vovsw Twsbgo#55591734
Yrqaz Rzanwr#26249986
Kfrbb Ebbpsf#96062922
Kktie Veinak#43203522
Gqynk Uknpfq#78714689
Jsadj Jjdqvs#84309350
Xvikr Grkblv#14513479
Islak Hkajps#81668530
Wpsdl Rlduhp#59516821
Obknj Sjngcb#35353548
Drscr Qrcsjr#62422495
Nackj Fjkvka#79395525
Deodd Dddrue#37538015
Qufgf Cfgwnu#98597149
Dhtfa Qafblh#30377628
Tflxi Dixeff#97863636
Igmhz Qzhcig#34284705
Riyun Nnuwii#67222359
Vsheo Toekcs#25304420
Mmopc Fcpxwm#48308295
Npkwg Ggwnup#83731372
Axber Rresix#84699888
Cmbpp Dppmum#72025594
Cpqqa Jaqskp#18089703
Bxgpg Ygpypx#72977048
Kaauq Aqujwa#19148615
Fcirc Jcrnxc#71054853
Rlcfw Wwfjcl#73404461
Rybco Docpay#60655690
Bpgfi Xifrxp#67649766
Hcdth Yhtdfc#55537803
Lrhdj Ljdicr#67528781
Qcazs Mszkbc#53812796
Jnbdm Hmddbn#95989650
Nqtsm Mmsdiq#65485815
Vzvxo Soxshz#16584839
Akliy Myizck#66036238
Ovjbv Hvbsxv#71326096
Owpil Ulitvw#14259376
Gpsaz Yzatgp#32049411
Fasoh Qhoula#28125975
Fglrn Vnrnpg#21872536
Jjfcf Mfcqfj#10078918
Iurgz Yzgozu#35215433
Xdyyz Fzykdd#10864375
Gmkjb Kbjzwm#83124723
Nvqem Vmevsv#95615982
Ifkvl Clvkdf#33162421
Izyzt Rtzynz#73509392
Yaqvm Nmvgta#54524808
Fapwu Nuwsma#30276873
Exqqe Teqgwx#63577390
Cchqb Lbqktc#71342612
Jlqjy Tyjudl#67273587
Vaopb Obpdua#48783632
Wuesn Unspru#85965159
Txcqh Thqbix#39914701
Qchcl Olcatc#64037290
Wjnbi Libptj#45724852
Djhko Nokbnj#31385641
Tgfli Uilkrg#66671895
Dmequ Fuqorm#73424471
Qdnqq Kqqhad#60656021
Wqrvd Zdvrvq#34333136
Pvhdm Qmdicv#43545551
Zuclf Lflmqu#89542848
Vblsu Juscjb#90209617
Ffrgy Gygvbf#85093185
Uvglq Jqlsuv#79112788
Bitjp Upjohi#82343309
Kplah Rharfp#47386202
Rwhiy Eyijvw#67288548
Syprc Ncrxty#17083051
Sogfs Qsffoo#33333634
Daqea Eaewma#13597802
Mxgou Duourx#77525989
Mvgur Zrueqv#46822155
Vrriq Fqiflr#64154943
Bixqm Omqvsi#36981250
Rauuy Nyujsa#15855791
Zzona Oanfjz#48975396
Rmwyp Ypyshm#97406670
Ozkwn Bnwswz#24327361
Wvxlb Lblgiv#75014299
Hkulu Fuljwk#95178647
Twbwf Nfwhxw#16353821
Mbxwf Bfwnkb#15677987
Ozphx Uxhrkz#59058805
Ldvnk Gknifd#56624154
Qzfyj Tjytcz#23532924
Hhfey Syerjh#70614277
Viziu Cuiati#64822964
Hnsav Cvaazn#89436534
Ishzl Ylzdms#13668740
Vflpq Mqpujf#88968441
Xjhbw Cwbdfj#51296854
Sjdzx Xxzlfj#98003979
Vgikk Ikkhug#95026286
Oezrw Bwrhxe#46772760
Iyhjp Tpjdjy#88148621
Cmrnv Tvnsjm#47193948
Lorxt Gtxjqo#97819496
Cwxsu Wusvcw#21795014
Efylr Drlldf#38418796
Kfmoe Leordf#43746118
Uwqic Qciuuw#54103476
Pusxf Mfxrpu#60257010
Orqyd Pdyafr#96429585
Tajnx Cxnata#16854234
Lwegq Lqgssw#22107291
Ecbxl Vlxojc#19781255
Nlfbt Itbcbl#28019044
Qbcdv Zvdlpb#53424473
Lmhgp Dpgikm#88772967
Licsm Hmseui#76617693
Mwwfo Iofhvw#83764770
Kalks Tskbia#49851787
Tfpvf Ffvpif#60332125
Arhly Nylcxr#20239675
Nzphk Ekhbtz#73348157
Uopui Fiudjo#92512735
Daaig Sgiwla#89092649
Psqbm Wmbyms#15157659
Wlihj Gjhfbl#16849098
Waoie Feiwua#92293802
Dktga Maglvk#31193310
Ybvhm Kmhqpb#36771873
Xhvxg Cgxjqh#37249939
Tafig Rgizta#93261548
Vxrjc Ocjahx#24423823
Imfav Zvakbm#74665638
Exqhq Jqhywx#31969355
Jebnp Zpnpne#94108610
Bwbnj Ujnubw#17136325
Gceaj Djaqvc#43631044
Ojvlv Jvlluj#49733594
Iuhtb Hbthlu#77231955
Xlsji Tijrpl#39231062
Ocpci Oictec#17121369
Acgjk Vkjtxc#16401432
Zfjrl Glreof#20772581
Hernb Gbnsde#79294790
Mxews Vswehx#98541819
Hxake Gekwtx#87292920
Dfoev Nvelif#33865608
Ewalz Yzlydw#20002291
Klwxo Doxkql#47759891
Gkabq Sqbplk#68936509
Bxmyr Prybmx#38675412
Wukza Dazafu#75245178
Vpbxx Wxxtgp#97341034
Wceyv Avyjnc#41053211
Werav Lvamoe#10997134
Rkwgt Jtgqak#47584743
Vgrap Fparog#37815852
Hdwxw Pwxojd#66375862
Foqgq Gqgjgo#98041203
Wxkwh Rhwfdx#32481886
Sponv Evnwwp#64114223
Cnxcz Vzcmpn#98754553
Zcuua Paupdc#22505984
Xnjlo Solhdn#41461238
Anhxz Ozxdkn#49845738
Usakw Lwkyis#82807289
Nkxng Hgndek#28721312
Xefmm Dmmpoe#26307353
Lfqxj Qjxlff#33066039
Ulgcz Fzcvzl#65384765
Cujkg Egkxgu#56218782
Jdkob Dbotud#98699612
Uoxvl Mlvopo#41044275
Hicrg Zgrxvi#49184727
Ldufx Pxfypd#23085954
Bblki Qikezb#41083806
Rlvtu Iutpwl#32129585
Brkay Hyafur#55696488
Nscnm Fmncms#38151429
Xidpi Aipzti#80371211
Atouz Szuogt#77342505
Ytwin Pnitot#60157233
Lcaen Lnegyc#78698631
Ikjtf Bftsrk#57639553
Cbtfq Gqfeeb#81161504
Uedyh Thyuse#84877051
Oeeno Roncbe#16554113
Rzlht Dthvfz#68115139
Lgxrr Hrrhcg#57675471
Ybody Syduxb#84943511
Uigpf Efpjci#89739715
Pxioo Mooszx#81556534
Ozbjs Xsjxiz#76834264
Owrjd Wdjgmw#56212607
Psvqc Xcqhhs#48175898
Tnbvb Ubvqen#87694029
Tipzc Hczari#78074260
Dvoik Ykiipv#83425513
Ynqdy Byduvn#42895116
Hujyx Pxysau#27861292
Yiggr Nrgjii#52938730
Ftrtb Gbtnot#60627441
Oejnd Gdnese#33529282
Vpptu Xutpap#48542849
Jxjiq Rqircx#56504693
Ewqnw Wwnvkw#20851201
Ykliy Eyigmk#11613906
Dbblg Fgluib#25344901
Qokxs Usxxmo#74135343
Yztwy Jywnnz#42405799
Bhful Fluazh#66957161
Bkwtz Eztrak#41087161
Aukvx Jxvhzu#53825802
Ckptu Lutvhk#83015703
Mokzv Xvzpeo#99245587
Largj Jjgzga#77384607
Dldbh Whbosl#72711481
Jylrf Wfrzly#77333223
Tkalp Mplcrk#14376888
Bzslx Jxlywz#85205080
Smaqv Nvqfcm#85555195
Kycnd Ldnhqy#27554620
Vgzcv Jvcbqg#22245125
Omonl Qlnlzm#37431809
Gixmb Mbmcki#10383951
Myedk Kkdlvy#46374969
Kizqa Laquji#81162225
Jzrhz Yzhmdz#84748980
Qhkpp Wppmyh#32934399
Xjusj Kjswjj#48505253
Txbue Jeubax#56862942
Wuuik Okijvu#17573013
Tgtfq Oqfygg#21562315
Ulwqp Ppqrll#79628135
Oksrc Ocrsek#45505923
Emzyt Mtyjlm#51522184
Ghxku Vukkih#81856108
Qpskx Zxkycp#63314918
Uoreo Toeveo#30226161
Bxfah Jhabkx#38836609
Lprxl Plxtsp#61412993
Thrfp Mpfaxh#60052045
Hidov Jvoaui#42629095
Jmqtg Dgtpzm#47782011
Votxq Vqxeho#51617813
Lqhcm Tmcgwq#92277837
Bdtue Jeulqd#48057955
Lsrjb Tbjsws#75682960
Kqchn Anhchq#81547342
Emgfe Eeflxm#22891372
Xhxao Doaeeh#91432378
Pqdqe Zeqnbq#54644648
Vjwrx Xxrmqj#32908049
Vbndx Sxdwib#79482643
Bqjen Xnexkq#94065430
Zodss Vssdeo#88295653
Oslff Wffats#67606278
Cubbs Vsbteu#54228827
Bwdpw Gwpxfw#15718303
Tifvi Oivigi#85559455
Bcqzv Avzatc#85043448
Leeps Fspive#92724135
Cgioj Ljoxug#33031630
Lelmd Kdmule#39844211
Jnnsa Dasdgn#71136104
Hrlux Jxuwar#44545684
Pnqqt Mtqcen#91219990
Sxkej Rjefex#55227341
Kbmdo Bodzbb#30573206
Cigcc Wcckui#56462196
Qomfg Jgfeuo#59389005
Ldzpt Otpxyd#12595398
Hbgkn Ankzib#73584253
Tcbwm Amwhqc#40747725
Iqmhk Akhjyq#11794927
Rnknu Sunlin#72412495
Kcmno Honhkc#91622486
Adyet Ytelwd#72475671
Yifmp Ypmnki#51537665
Drwhn Gnhrnr#11058499
Hrwzh Ahzjyr#30356236
Jaiht Zthcia#68463140
Yzwaq Bqaboz#74595792
Lgnpx Lxpmmg#22903996
Hufps Ospyeu#79637068
Axtfj Vjfesx#30331568
Utfaq Eqafst#98441844
Vpjzl Olzpvp#24576655
Uxoga Aagytx#69004236
Sdqju Lujnmd#75667719
Wfxit Jtinjf#49731786
Oecud Cduxze#99109370
Vwofz Pzfedw#62821934
Kjfvd Bdvlwj#10441752
Iajle Pelgga#34578901
Yfghp Ephirf#11504042
Kblru Hurfkb#14543746
Qseny Zynfns#53202722
Xhelx Axlqzh#25381869
Uauhq Tqhgma#47786224
Zfbmh Rhmtcf#20325843
Ojfkn Ankidj#60194883
Yzhhw Mwhcmz#42909497
Vgqmk Nkmswg#86704960
Lopzf Tfzgpo#37409891
Yhnqv Jvqrzh#78711491
Ihuwn Gnwsfh#80167181
Oblih Qhixsb#88605316
Pexue Reuame#68628249
Eqfhl Ulhkzq#76408699
Tepim Qmigye#78651856
Zffvn Ynvznf#25689855
Gnhxi Kixykn#61165023
Sqalq Hqlbjq#66298586
Mclhp Uphflc#43847850
Utvyj Ajynlt#93136159
Igrni Tinijg#67424684
Cnftp Rptpjn#80895402
Ydcaa Taaacd#51753257
Ypyil Olihdp#25382659
Gyylt Gtlbfy#22997255
Rihbj Tjbnmi#91166023
Gryxb Bbxihr#40369670
Absyu Ruycjb#33248865
Ezrad Cdaxyz#47731338
Etzkb Ybkeyt#17366076
Cfldc Ecdksf#70226125
Agvld Sdljsg#72473815
Azzqm Rmqybz#47133020
Hxlgd Sdgwfx#58231833
Puiru Oursqu#22789321
Hqlhf Ifhgsq#33863735
Hknio Goiwvk#65583377
Kpriy Byiadp#81515894
Eqojs Ssjqeq#42823332
Bcezm Nmzlyc#37488104
Ruwwl Glwyuu#77149409
Fsjoa Faoqps#84041498
Cjjlg Pglwwj#56017929
Tsmey Xyexes#40691607
Pqdhk Kkhfyq#28693240
Frvoa Iaover#60521777
Gmjnl Nlnrkm#29746491
Xjszn Xnztgj#98273755
Pmjjl Eljuzm#83446512
Pjiwc Acwgsj#84672746
Ugcro Forcfg#81246267
Besqg Bgqroe#74633446
Wridz Fzdogr#24799377
Uukpp Oppsdu#32621208
Clvpn Anphul#76253575
Tdmmf Wfmkfd#15223948
Yulhk Lkhmuu#57015029
Oizwn Wnwrwi#10676249
Zyjed Tdenly#37413252
Iopdi Cidvco#22663924
Parze Pezota#88364514
Feysu Nuswfe#76282649
Qmepk Kkpzam#56191321
Lseeq Nqetos#13284206
Ecskf Pfkdfc#57076662
Owvgt Ctgkiw#94672914
Hvepu Hupbrv#63226929
Yudit Mtigmu#30655253
Rqnbf Tfbwiq#34892277
Bhgkg Agkvwh#87993608
Vkhcl Klcsuk#90187951
Rlezz Jzzcil#71313018
Nadnb Obnhaa#82276964
Epinp Kpnxvp#89905547
Vietg Pgtrti#32195871
Ohrel Xlelch#71944516
Hkiid Jdizvk#94896608
Upfqa Qaqqnp#29058347
Uooma Jambro#83087131
Izxbd Cdbyoz#95739244
Jkrna Banczk#67148736
Dvffv Kvfptv#20888104
Teoee Heewje#14313511
Jruag Qgasrr#83641691
Zbhrr Grrsxb#27537060
Qkvod Tdocmk#35413982
Knzms Vsmogn#71672105
Hhyac Tcaxrh#49315190
Fskkv Gvkkqs#27548139
Ywvzu Nuzxxw#21382086
Txscy Zyctzx#48361205
Ggokd Udkuhg#38948861
Sbqmf Cfmvdb#29996939
Savqu Kuqawa#53173446
Gdlcf Zfcqpd#72951704
Ifzos Hsoqxf#93708574
Ozaby Cybrqz#80185177
Dwzgs Gsgsaw#76707751
Gmphu Nuhegm#43874385
Rwnqh Ehqolw#72895268
Ouukx Gxkplu#13851295
Clgix Wxintl#60792839
Mejes Rsezfe#85938693
Pisey Kyevmi#73374107
Balfx Axftpa#14015106
Mdcpg Dgpdld#76629811
Wqxns Rsncnq#86063132
Igpyc Rcyvpg#84405482
Suhuz Vzundu#86765214
Rjvzh Shzrdj#75136158
Bqidr Grdjrq#11093228
Eqmcx Uxcvpq#71036393
Ummwd Tdwxsm#52326533
Gmrdx Jxdwjm#55754107
Lkmil Ulizqk#66956659
Kyhzj Rjzyly#18785279
Llyvp Xpvupl#29996181
Terkv Svkhve#61717551
Kggsu Tusdng#89112429
Kggsf Zfsmig#34554467
Wmkmw Kwmfqm#47052488
Vfhsq Nqsnmf#99987816
Vztnp Zpnnuz#42732830
Lkwgh Vhgykk#36781658
Htabd Qdbant#63814020
Rmjzx Vxzwkm#57786735
Jsmvz Czvlps#72188623
Jpeik Wkigmp#66423053
Ydlsi Sismqd#65545338
Rlcdt Rtdcxl#59582167
Farrz Tzrzva#40306677
Scowy Nywfuc#15433186
Glwzw Pwzccl#29387887
Vghya Mayemg#31592841
Asilt Ftlmss#86242796
Wxftb Dbtyox#29345967
Flslu Wulygl#37524365
Ptykt Qtkhtt#40523216
Nqovk Rkvijq#37456996
Kpsza Lazrup#92111947
Csrlw Iwlebs#15532997
Jzkka Oakvrz#24869992
Rdizi Cizzvd#57727463
Fmqde Vedlfm#46326288
Ezlpr Wrpsvz#40014577
Wfsqf Wfqnqf#60036288
Spkgz Ezgapp#74843985
Kjimi Iimxjj#10499544
Cmvnc Tcnkxm#36836370
Speki Hikfap#43854784
Dabpg Qgpvta#10852844
Yarqt Utqbya#95429172
Lwzgi Eiggpw#96128846
Zykbc Icbxuy#90872528
Xmvnr Vrnfbm#38396287
Wvird Ddrvcv#94216000
Bqrgx Hxgpiq#97162057
Xiffo Rofcii#27546985
Iovaq Eqaypo#23586382
Bahlo Voliya#40929620
Cxmsg Wgsxux#74538841
Wvrcf Yfcbnv#70325546
Egosk Aksuqg#32422936
Vcnlw Ywlhpc#21921086
Ocwjz Yzjxyc#63618681
Lvddi Uidxav#37975777
Byzhy Ayhnzy#37053992
Rvhdm Mmdvjv#73999859
Oasew Jwelwa#56711773
Xwrsv Bvswpw#11345389
Jebnc Fcnbpe#48062576
Lwken Cnerzw#56199307
Ztugd Bdghtt#56891516
Wydbm Vmbsyy#33697023
Egvba Paburg#20468489
Vasol Oloyqa#27019607
Enosy Oyszrn#66838769
Akwug Kgufek#72146814
Kpkyp Cpyswp#82729934
Fzoyd Bdyryz#22574529
Qhcya Raysqh#88929757
Rsxro Oorfss#70378869
Uawyr Nrygta#15266841
Pszdt Ltdmhs#45078794
Jbsri Hirkeb#17146467
Hysuh Ghujfy#36125156
Eaqnk Wkndda#89678111
Tlgtx Xxtzzl#78911191
Pgwgo Hogvqg#67921343
Xoiyc Zcyemo#56609623
Jfatq Qqtbbf#63329118
Ljxip Vpinoj#30083793
Jkhok Vkozgk#41994905
Puime Remosu#66804123
Hcuuz Fzuhzc#53296609
Tsjhv Xvhkms#30566600
Pgoef Ffeevg#80919358
Swhqj Tjqxaw#11004580
Xcuab Rbalxc#79564693
Ekzcb Qbcpsk#77503940
Cheyw Twytih#56329730
Hlcgc Rcgljl#26983434
Nqqmj Wjmlxq#11049653
Paaxl Jlxjha#77563206
Dlxmv Qvmbdl#62883660
Yxsnp Spniwx#34135733
Yfxuy Fyuxof#16148166
Suekm Bmkvou#78802652
Oghei Xieupg#68831056
Jykpi Fipkey#65379388
Odzet Utehwd#76521673
Tmigs Ysgjjm#75641950
Mougi Oigcpo#80641910
Oxlzt Atznrx#58522185
Zoyau Guaryo#74665978
Xbzmi Pimakb#21689321
Zdtyy Gyyord#63757834
Qvehz Izhqwv#89896237
Fjghf Sfherj#42722363
Crdmd Ydmjvr#23002328
Fakyj Gjyzca#95105539
Dwzvm Tmvvew#14912849
Eyyqp Rpqyay#99507541
Styac Dcagst#26205804
Zjyxo Voxadj#73445251
Pzrwr Arwoaz#86291178
Bexlp Wplbte#27091760
Howgy Dygjbo#95619436
Nejxf Cfxwhe#73068236
Btopa Aapeqt#10135627
Ccqej Ujednc#91132766
Besvz Pzvqne#25853635
Leolq Dqlxoe#84267557
Vgzsr Yrsfcg#50916898
Jcads Fsdrjc#27825360
Dgyfx Jxfnvg#31265011
Rwrfw Cwfsrw#86179377
Ezpuu Puudiz#69427958
Ubgyl Mlyvxb#75795480
Ypecb Jbceap#21456593
Ycjdu Budjsc#85856666
Xhjmy Iymrvh#45023058
Legzb Rbzhue#33861187
Mpriq Sqidqp#46653973
Asvaz Lzaols#86569293
Nkezz Nzzhlk#92627449
Aabty Jythha#35762167
Iwjtc Dctkyw#27343721
Wdbvh Phvpod#73563586
Pffer Eremwf#53897347
Tgcdk Pkdizg#25384652
Yxnho Eohuwx#82111530
Xafuc Ncuqza#18994706
Scwnb Hbnofc#92037037
Bastz Wztmoa#67446974
Eultw Dwtzvu#23637398
Fazpt Stpjsa#62129101
Skzzb Bbzzdk#30956115
Jddwn Wnwyad#51922543
Qcydz Szdofc#26293110
Fzkir Vridhz#99688794
Fnvpb Pbpcxn#10504120
Famyl Mlyhua#43245211
Nchlp Rpldlc#87367024
Wykwd Bdwzvy#45237647
Cjhnw Vwnqsj#46604748
Mcxjp Kpjfdc#58353370
Jylvj Yjvyky#79432095
Qukuy Gyujmu#88708461
Ckumc Mcmfjk#12946442
Javua Vauvxa#12176965
Bgepf Sfprwg#35003710
Ukmpp Wppayk#10539744
Vbimq Xqmanb#31768891
Qgppm Mmpmvg#47157836
Rnxbh Shbfyn#77722629
Zofaf Ffarho#18811046
Acwnq Nqnlkc#76833196
Ngome Yemowg#18332111
Jpzcp Xpceup#69087004
Xypby Dybzay#11711985
Tfcvj Zjvfef#67057451
Woatv Wvtxbo#11769457
Xhtzz Pzzfqh#21722423
Joezs Qszedo#98061828
Njssc Ucskuj#83675109
Dstzm Mmzkcs#14678265
Ojdhc Ochjnj#44938280
Qxcoi Iioygx#94117375
Gvlxq Aqxnxv#37689123
Cepxp Kpxxze#15214590
Ryyor Propoy#76398945
Igfvo Tovxfg#22507644
Jztlf Rflsiz#28163979
Eugtx Txtdqu#28061777
Qlboz Lzoigl#68002843
Etrbb Mbbjxt#75842363
Qvwna Fankcv#72281332
Ujhjg Vgjtuj#23287219
Flfbx Pxborl#71724624
Uubcs Hscyuu#48961282
Kzpnf Tfncsz#90307596
Opian Enagtp#42267941
Dlwcq Xqcznl#30149003
Itjvq Iqvtot#64819729
Kuhyk Wkyccu#27392531
Lkoup Zpunpk#17428982
Tewih Ehikme#18475714
Lodqu Duqcho#67233756
Lqhng Dgnwgq#89082667
Jpmmv Rvmmgp#42644554
Tmgab Ebaqdm#99544892
Nsewj Ajwgzs#66639988
Andvb Ibvokn#67397518
Gtkpc Qcpxet#15605346
Alkcc Iccvil#95287336
Oybxx Xxxlty#79413145
Rxwug Oguhgx#96725699
Suhhw Zwhgyu#82105276
Vbvhr Urhsyb#85385727
Ykvup Epuafk#73317572
Bwnpg Ygpsmw#22301266
Grnpi Iipjrr#61187556
Xffzd Udzbaf#39967494
Cvfdo Podpev#98154259
Jttwt Rtwujt#82446147
Mabyl Wlyffa#12083849
Ttgwr Qrwoot#93012609
Tttzr Xrzyzt#74144376
Eiktu Dutaoi#26141607
Gsufc Dcfaes#39313895
Jyiph Ehpqjy#32849547
Uzite Peticz#86569623
Wtuaa Jaazpt#95639027
Urxul Blukrr#22516442
Enrxn Ynxwcn#57967085
Itbmg Jgmmrt#30274103
Jfquc Hcumnf#94852684
Mdzdi Ridvzd#95231395
Xxsuy Dyuuhx#55014117
Tlwzu Guzcpl#83064635
Crmbw Pwbbtr#33785158
Fdulz Lzllqd#10586145
Tkhhf Zfhvzk#68454592
Zsfyv Dvymns#82802801
