100
50
Pgkdm Umddug#83698035
Vogyp Spyzfo#18965093
Daxlw Bwlvja#35768913
Joggg Wggxlo#41755019
Rnuwj Vjwjan#71495334
Vqnwd Rdwyjq#86622528
Xvubd Ddbpwv#49226789
Uomjt Wtjapo#94875862
Rqecq Qqcemq#89766101
Mohzv Tvzqbo#97302519
Psivw Vwvdjs#95114930
Apeyt Ztyulp#39575240
Ytzsz Dzsrgt#68753084
Hqnsw Lwsxrq#51623692
Ocaef Hfekac#44229049
Qhzti Aitpwh#22638343
Dzfrk Dkrosz#57153451
Skdji Tijsuk#16229480
Pjvll Nllquj#48448020
Qdrwh Jhwimd#65319952
Vnbcz Mzcrin#36383775
Ohrkg Ugkreh#22548550
Zmqwk Xkwhfm#22984497
Znldb Sbdyxn#34149096
Qnnum Gmuzsn#21619335
Duyzm Bmznbu#39566192
Qcdnj Cjncjc#39176577
Xbhqk Mkqizb#87015935
Uevby Uybuse#72772369
Yamyh Ihyska#39579507
Taqqo Poqmca#88793308
Cobvv Kvvgeo#48068552
Merbc Gcbxhe#76906387
Pedre Qerzle#52743777
Ojorm Mmrlcj#14727540
Vqlsr Frscdq#11876102
Lrjqp Kpqitr#34351135
Hbxuf Ofuslb#40954426
Jcoob Mboyhc#65106265
Fkyfb Mbfumk#19404205
Paoaz Kzaqaa#74486015
Qraqd Ldqcor#10474495
Nxpmx Hxmnbx#61359428
Dmqpn Mnpmfm#55021024
Ycujt Gtjvhc#58149413
Qyftk Jktayy#13024471
Jwouf Ufutcw#66549282
Yxgqt Ttqcxx#48701431
Ltzes Eseeot#43443768
Swixf Dfxelw#15397040
Noefl Clfhjo#30703877
Kbeyt Itylzb#40024677
Utyah Khamtt#89501411
Ddfma Famzcd#92365096
Vunib Qbipfu#59811863
Ecmhx Uxhecc#11428471
Apwrr Irrtpp#66276109
Mmfqi Uiqxnm#33554697
Fpyht Zthrbp#23912527
Kepnx Zxnoge#20349357
Haada Radafa#41183530
Belrp Xprdke#17868431
Zdvpo Copkud#45189192
Wmqxe Kexuxm#94926962
Grrun Xnuuur#48905638
Hamwv Lvwkka#66861396
Gmzzf Jfzopm#11637607
Gfwsb Xbspxf#61651013
Zdswf Wfwlfd#60541123
Afzfa Mafzqf#61266960
Ostft Ntfsws#91706349
Cvuzk Lkzkwv#43522820
Cmrah Mhadfm#97382031
Bowmh Ahmfho#94739269
Uonua Gauxao#40364695
Rluzu Ruzagl#70949364
Lwnjd Adjpnw#27926585
Qbmdh Ehddeb#17224507
Xyzzr Urzagy#76061564
Vnaxg Sgxgan#48737337
Hfhby Hybtdf#88727497
Azxfh Bhfbdz#30293447
Hyxmy Nymhdy#26718194
Vizel Mlempi#23771893
Fugac Ucagdu#49935525
Zxofr Urfczx#23235145
Helzf Wfzgxe#64148581
Erahi Sihydr#31626655
Gxtzl Alzszx#51567813
Rbjxf Xfxfnb#60648426
Uedcy Vycsle#71091500
Icrdt Mtdmrc#45926969
Buvsh Ehspwu#39668634
Qxazf Ifzkdx#37302863
Fcdct Etcopc#11969185
Podxz Rzxuxo#38739348
Fuocq Kqcegu#74422225
Paisj Djskba#79636777
Mijwp Opwhqi#61866637
Tfbdp Jpdcpf#40859718
